TRIM_OUTPUT                       Y
HAVE_OUTPUT_FILE                  N
WRITE_OUTPUT_TO_FILE              N
DO_UNKNOWNS_ONLY                  N
WRITE_UNKNOWNS_TO_FILE            N
IGNORE_UNKNOWN_NAMES              N
IGNORE_UNKNOWN_CAPS               N
DO_COMPOUNDS                      Y
DO_FIXES                          Y
DO_TRICKS                         Y
DO_DICTIONARY_FORMS               Y
SHOW_AGE                          Y
SHOW_FREQUENCY                    Y
DO_EXAMPLES                       N
DO_ONLY_MEANINGS                  N
DO_STEMS_FOR_UNKNOWN              N
